Predicting High-Density Lipoprotein Cholesterol Levels – 432-2025
…
nh_demo <- read_rds("data/nh_demo.Rds")

4 The Tidy Tibble

4.1 Listing the Tibble

Note

If I ask you to print/list a tibble, part of the reason is to ensure that it actually is a tibble. A tibble will, as below, only print the first 10 rows.

Code

nh_demo

# A tibble: 999 × 9
   SEQN    HDL HDL_RISK   AGE RACE_ETH WAIST SROH      SEX   CYCLE  
   <chr> <dbl>    <dbl> <dbl> <fct>    <dbl> <fct>     <chr> <chr>  
 1 84842    48        0    50 Hispanic 101.  Good      M     2015-16
 2 92202   111        0    65 NH_Black  77   Fair      F     2015-16
 3 93010    46        1    63 NH_White  NA   Poor      F     2015-16
 4 93974    39        1    59 NH_White 111.  Good      M     2017-18
 5 96205    56        0    52 NH_Black  98   Good      M     2017-18
 6 95571    42        1    54 NH_White 104.  Good      F     2017-18
 7 99969    54        0    69 NH_Black 115.  Fair      M     2017-18
 8 89494    36        1    42 NH_Asian  98.1 <NA>      F     2015-16
 9 83887   101        0    51 NH_Black  74   Excellent F     2015-16
10 96908    48        1    73 Other    102   Good      F     2017-18
# ℹ 989 more rows
…
