Lab 3 – 432-2025
…
Exclude the 25 subjects in hbp3456 who have missing values of either hsgrad or income.

Restrict your data to the variables we’ll use in our models (the five predictors listed above, the estimated neighborhood income, and the subject identifying code (the record)).

Ensure that all character variables (other than record) in your tibble are recognized as factors.

Create a new variable called sqrtinc which will serve as your response (outcome) for your regression modeling, within your tibble.

Use set.seed(432) and slice_sample() to select a random sample of 1000 subjects from the tibble.

Your resulting hbp_b tibble should look like this:

hbp_b

# A tibble: 1,000 × 8
   record income hsgrad race     eth_hisp   age tobacco sqrtinc
   <chr>   <int>  <dbl> <fct>    <fct>    <int> <fct>     <dbl>
 1 903574  34800   94.9 White    No          48 Current    187.
 2 926837  24700   74.2 AA_Black No          55 Current    157.
 3 929198  14700   40   AA_Black No          35 Never      121.
 4 932367  24700   74.2 AA_Black No          41 Never      157.
 5 925592  65600   92.2 <NA>     <NA>        61 Never      256.
 6 932404  18500   67.8 AA_Black No          67 Never      136.
 7 933953  21500   84.4 White    No          72 Never      147.
 8 911527  23000   83.6 White    No          62 Never      152.
 9 918228  13400   70.3 AA_Black No          52 Current    116.
10 930262  48300   90   <NA>     <NA>        73 Never      220.
# ℹ 990 more rows
…
